…
``` r
# Only purchases made in the US with discounts
USCityProfits <- discountedUSPurchases %>% 
      group_by(City) %>% # group by city purchase was made in
      summarise(totalProfit = sum(Profit)) # total profit for each city

# Now view your results
USCityProfits
```
    ## # A tibble: 348 × 2
    ##    City        totalProfit
    ##    <chr>             <dbl>
    ##  1 Abilene           -3.76
    ##  2 Akron           -187.  
    ##  3 Albuquerque       96.2 
    ##  4 Allen            -39.9 
    ##  5 Allentown       -226.  
    ##  6 Altoona           -1.19
    ##  7 Amarillo        -388.  
    ##  8 Anaheim          448.  
    ##  9 Ann Arbor          5.23
    ## 10 Apopka            54.4 
    ## # ℹ 338 more rows
    ## # ℹ Use `print(n = ...)` to see more rows
…
