…
    ## Error in `summarize()`:
    ## ℹ In argument: `total = count()`.
    ## ℹ In group 1: `cut = Fair` `color = D`.
    ## Caused by error in `UseMethod()`:
    ## ! no applicable method for 'count' applied to an object of class "NULL"

The error message already suggest that the error was in the
`summarize()` function, but lets run each line of code to check:

``` r
diamonds
```

    ## # A tibble: 53,940 × 10
    ##    carat cut       color clarity depth table price     x     y     z
    ##    <dbl> <ord>     <ord> <ord>   <dbl> <dbl> <int> <dbl> <dbl> <dbl>
    ##  1  0.23 Ideal     E     SI2      61.5    55   326  3.95  3.98  2.43
    ##  2  0.21 Premium   E     SI1      59.8    61   326  3.89  3.84  2.31
    ##  3  0.23 Good      E     VS1      56.9    65   327  4.05  4.07  2.31
    ##  4  0.29 Premium   I     VS2      62.4    58   334  4.2   4.23  2.63
    ##  5  0.31 Good      J     SI2      63.3    58   335  4.34  4.35  2.75
    ##  6  0.24 Very Good J     VVS2     62.8    57   336  3.94  3.96  2.48
    ##  7  0.24 Very Good I     VVS1     62.3    57   336  3.95  3.98  2.47
    ##  8  0.26 Very Good H     SI1      61.9    55   337  4.07  4.11  2.53
    ##  9  0.22 Fair      E     VS2      65.1    61   337  3.87  3.78  2.49
    ## 10  0.23 Very Good H     VS1      59.4    61   338  4     4.05  2.39
    ## # ℹ 53,930 more rows

This executes correctly, that is, the obejct exists!

``` r
diamonds %>% 
  mutate(price200 = price - 200, 
         price20perc = price * .80)
```

    ## # A tibble: 53,940 × 12
    ##    carat cut       color clarity depth table price     x     y     z price200
    ##    <dbl> <ord>     <ord> <ord>   <dbl> <dbl> <int> <dbl> <dbl> <dbl>    <dbl>
    ##  1  0.23 Ideal     E     SI2      61.5    55   326  3.95  3.98  2.43      126
    ##  2  0.21 Premium   E     SI1      59.8    61   326  3.89  3.84  2.31      126
    ##  3  0.23 Good      E     VS1      56.9    65   327  4.05  4.07  2.31      127
    ##  4  0.29 Premium   I     VS2      62.4    58   334  4.2   4.23  2.63      134
    ##  5  0.31 Good      J     SI2      63.3    58   335  4.34  4.35  2.75      135
    ##  6  0.24 Very Good J     VVS2     62.8    57   336  3.94  3.96  2.48      136
    ##  7  0.24 Very Good I     VVS1     62.3    57   336  3.95  3.98  2.47      136
    ##  8  0.26 Very Good H     SI1      61.9    55   337  4.07  4.11  2.53      137
    ##  9  0.22 Fair      E     VS2      65.1    61   337  3.87  3.78  2.49      137
    ## 10  0.23 Very Good H     VS1      59.4    61   338  4     4.05  2.39      138
    ## # ℹ 53,930 more rows
    ## # ℹ 1 more variable: price20perc <dbl>

The use of the mutate function to calculate to new variables also seems
to be working

``` r
diamonds %>% 
  mutate(price200 = price - 200, 
         price20perc = price * .80) %>%
  group_by(cut, color)
```

    ## # A tibble: 53,940 × 12
    ## # Groups:   cut, color [35]
    ##    carat cut       color clarity depth table price     x     y     z price200
    ##    <dbl> <ord>     <ord> <ord>   <dbl> <dbl> <int> <dbl> <dbl> <dbl>    <dbl>
    ##  1  0.23 Ideal     E     SI2      61.5    55   326  3.95  3.98  2.43      126
    ##  2  0.21 Premium   E     SI1      59.8    61   326  3.89  3.84  2.31      126
    ##  3  0.23 Good      E     VS1      56.9    65   327  4.05  4.07  2.31      127
    ##  4  0.29 Premium   I     VS2      62.4    58   334  4.2   4.23  2.63      134
    ##  5  0.31 Good      J     SI2      63.3    58   335  4.34  4.35  2.75      135
    ##  6  0.24 Very Good J     VVS2     62.8    57   336  3.94  3.96  2.48      136
    ##  7  0.24 Very Good I     VVS1     62.3    57   336  3.95  3.98  2.47      136
    ##  8  0.26 Very Good H     SI1      61.9    55   337  4.07  4.11  2.53      137
    ##  9  0.22 Fair      E     VS2      65.1    61   337  3.87  3.78  2.49      137
    ## 10  0.23 Very Good H     VS1      59.4    61   338  4     4.05  2.39      138
    ## # ℹ 53,930 more rows
    ## # ℹ 1 more variable: price20perc <dbl>
…
``` r
diamonds %>% 
  mutate(price200 = price - 200, 
         price20perc = price * .80) %>%
  group_by(cut, color) %>% 
  summarize(total = n(), 
            m1 = mean(price), 
            m2 = mean(price200), 
            m3 = mean(price20perc)) %>%
  ungroup()
```

    ## # A tibble: 35 × 6
    ##    cut   color total    m1    m2    m3
    ##    <ord> <ord> <int> <dbl> <dbl> <dbl>
    ##  1 Fair  D       163 4291. 4091. 3433.
    ##  2 Fair  E       224 3682. 3482. 2946.
    ##  3 Fair  F       312 3827. 3627. 3062.
    ##  4 Fair  G       314 4239. 4039. 3391.
    ##  5 Fair  H       303 5136. 4936. 4109.
    ##  6 Fair  I       175 4685. 4485. 3748.
    ##  7 Fair  J       119 4976. 4776. 3981.
    ##  8 Good  D       662 3405. 3205. 2724.
    ##  9 Good  E       933 3424. 3224. 2739.
    ## 10 Good  F       909 3496. 3296. 2797.
    ## # ℹ 25 more rows
…
    ## Error in parse(text = input): <text>:3:10: unexpected symbol
    ## 2:   mutate(price200 = price - 200 # missing comma
    ## 3:          price300
    ##             ^

``` r
diamonds %>% 
  mutate(price200 = price - 200, ## added comma
         price300 = price - 300) %>% # added pipe
  select(cut, price) %>%
  arrange(price)
```

    ## # A tibble: 53,940 × 2
    ##    cut       price
    ##    <ord>     <int>
    ##  1 Ideal       326
    ##  2 Premium     326
    ##  3 Good        327
    ##  4 Premium     334
    ##  5 Good        335
    ##  6 Very Good   336
    ##  7 Very Good   336
    ##  8 Very Good   337
    ##  9 Fair        337
    ## 10 Very Good   338
    ## # ℹ 53,930 more rows
…
You did not save an object that you wanted to save. This is very common
at the beginning, when you are still not used to assigning data to
objects using `<-` so that R can save the object in the workspace and
use it later.

For example, imagine you had this piece of code

``` r
# Calculate and get new variable about price
diamonds %>% 
  mutate(price100 = price - 100)
```

    ## # A tibble: 53,940 × 11
    ##    carat cut       color clarity depth table price     x     y     z price100
    ##    <dbl> <ord>     <ord> <ord>   <dbl> <dbl> <int> <dbl> <dbl> <dbl>    <dbl>
    ##  1  0.23 Ideal     E     SI2      61.5    55   326  3.95  3.98  2.43      226
    ##  2  0.21 Premium   E     SI1      59.8    61   326  3.89  3.84  2.31      226
    ##  3  0.23 Good      E     VS1      56.9    65   327  4.05  4.07  2.31      227
    ##  4  0.29 Premium   I     VS2      62.4    58   334  4.2   4.23  2.63      234
    ##  5  0.31 Good      J     SI2      63.3    58   335  4.34  4.35  2.75      235
    ##  6  0.24 Very Good J     VVS2     62.8    57   336  3.94  3.96  2.48      236
    ##  7  0.24 Very Good I     VVS1     62.3    57   336  3.95  3.98  2.47      236
    ##  8  0.26 Very Good H     SI1      61.9    55   337  4.07  4.11  2.53      237
    ##  9  0.22 Fair      E     VS2      65.1    61   337  3.87  3.78  2.49      237
    ## 10  0.23 Very Good H     VS1      59.4    61   338  4     4.05  2.39      238
    ## # ℹ 53,930 more rows
…
